{
    "date": "31-03-2023",
    "ver": 2,
    "note": "",
    "device": "gpu",
    "resume_training": false,
    "resume_from": 0,
    "experiments": "/home/sapar/experiments/",
    "data_location": "/home/sapar/work/data/sub",
    "model":
    {
        "name": "resnet34",
        "in_c": 6
    },
    "train": 
    {
        "batch_size": 16,
        "learning_rate": 0.003,
        "epochs": 500,
        "weight_decay": 0.0001,
        "lr_decay_at": [1000, 1000, 1000],
        "save_every": 5,
        "data": "/home/sapar/work/test.txt"
        
    },
    "val": 
    {
        "batch_size": 16,
        "data": "/home/sapar/work/test.txt",
        "val_every": 1000
    },
    "norm":
    {
        "mean": [-6.96, -14.63, 1173.66, 1124.87, 1001.55, 1708.19],
        "std": [4.58, 4.06, 608.05, 548.14, 530.73, 736.68]
    },
    "augmentation":
    {
        "p": 1,
        "rotation":
        {
            "limit_angle": 10,
            "use": false
        },
        "affine":
        {
            "limit_angle": 10,
            "limit_translation": 10,
            "limit_shear": 10,
            "limit_scale": [0.9, 1],
            "use": true
        },
        "erase":
        {
            "max_pixels":30,
            "use": false
        }
    }
}